[gd_scene load_steps=3 format=2]

[ext_resource path="res://Assets/Nodes/LevelBorder.gd" type="Script" id=1]

[sub_resource type="RectangleShape2D" id=1]

custom_solver_bias = 0.0
extents = Vector2( 100, 100 )

[node name="LevelBorder" type="Area2D"]

input_pickable = false
shapes/0/shape = SubResource( 1 )
shapes/0/transform = Transform2D( 1, 0, 0, 1, 0, 0 )
shapes/0/trigger = false
gravity_vec = Vector2( 0, 1 )
gravity = 98.0
linear_damp = 0.1
angular_damp = 1.0
script = ExtResource( 1 )

[node name="CollisionShape2D" type="CollisionShape2D" parent="."]

shape = SubResource( 1 )
trigger = false
_update_shape_index = 0

[connection signal="body_entered"  from="."  to="." method="_on_LevelBorder_body_enter" binds=[  ]]
